<robot name="poppy_upc">
  <link name="ankle_right">
    <inertial>
      <origin xyz="0.03662332 0.00116080 0.02900804" rpy="0 0 0"/>
      <mass value="0.12884" />
      <inertia  ixx="0.00010915" 	ixy="0.00000548"	ixz="0.00013695"  
									iyy="0.00028264"  	iyz="0.00000434"
														izz="0.00017484" />
    </inertial>
    <visual>
      <origin xyz="0 0 0" rpy="0 0 0"/>
      <geometry>
        <mesh filename="package://poppy_upc_description/meshes/ankle_right.stl"/>
      </geometry>
    </visual>
    <collision>
      <origin xyz="0 0 0"/>
      <geometry>
        <mesh filename="package://poppy_upc_description/meshes/ankle_right_simple.stl"/>
      </geometry>
    </collision>
  </link>
</robot>