<?xml version="1.0"?>
<robot name="poppy_upc_base_link">
  <link name="base_link">
    <inertial>
      <origin xyz="0 0 0" rpy="0 0 0"/>
      <mass value="0.53908" />
      <inertia  ixx="0.00000137" 	ixy="0.00000000"	ixz="0.00000000"  
					iyy="0.00000332"  	iyz="0.00000000"
								izz="0.00000461" />
    </inertial>
    <visual>
      <origin xyz="0 0 0" rpy="0 0 0"/>
      <geometry>
        <mesh filename="package://poppy_upc_description/meshes/base_link.stl"/>
      </geometry>
    </visual>
  </link>
</robot>
