<robot name="poppy_upc">
  <link name="foot_right">
    <inertial>
      <origin xyz="0.00000000 0.02599249 0.05697520" rpy="0 0 0"/>
      <mass value="0.08225" />
      <inertia  ixx="0.00032411" 	ixy="0.00000000"	ixz="0.00000000"  
									iyy="0.00026848"  	iyz="0.00012198"
														izz="0.00005824" />
    </inertial>
    <visual>
      <origin xyz="0 0 0" rpy="0 0 0"/>
      <geometry>
        <mesh filename="package://poppy_upc_description/meshes/foot_right.stl"/>
      </geometry>
    </visual>
    <collision>
      <origin xyz="0 0 0"/>
      <geometry>
        <mesh filename="package://poppy_upc_description/meshes/foot_right_simple.stl"/>
      </geometry>
    </collision>
  </link>
</robot>