<?xml version="1.0"?>
<robot name="poppy_upc_boxes">

  <link name="base_link">
    <visual>
      <origin rpy="0 0 0" xyz="0 0 0"/>
      <geometry>
        <box size="0.04 0.04 0.06"/>
      </geometry>
      <material name="white">
        <color rgba="1 1 1 0.5"/>
      </material>
    </visual>
  </link>


  <link name="hip">
    <visual>
      <origin rpy="0 0 0" xyz="0 0 0"/>
      <geometry>
        <box size="0.15 0.04 0.04"/>
      </geometry>
      <material name="white">
        <color rgba="1 1 1 0.5"/>
      </material>
    </visual>
  </link>

  <joint name="base_to_hip" type="fixed">
    <parent link="base_link"/>
    <child link="hip"/>
    <origin xyz="0 0 -0.05"/>
  </joint>



  <link name="column">
    <visual>
      <origin rpy="0 0 0" xyz="0 0 0"/>
      <geometry>
        <box size="0.02 0.02 0.34"/>
      </geometry>
      <material name="black">
        <color rgba="0 0 0 0.5"/>
      </material>
    </visual>
  </link>

  <joint name="base_to_column" type="fixed">
    <parent link="base_link"/>
    <child link="column"/>
    <origin xyz="0 0 0.2"/>
  </joint>



  <link name="hip_right_1">
    <visual>
      <origin rpy="-1.5708 -1.5708 0" xyz="0.05 0 0"/>
      <geometry>
        <box size="0.05 0.03 0.04"/>
      </geometry>
      <material name="cian">
        <color rgba="0 1 1 0.5"/>
      </material>
    </visual>
  </link>

  <joint name="base_to_hip_right_1" type="revolute">
    <parent link="base_link"/>
    <child link="hip_right_1"/>
    <origin xyz="0.065 0 -0.05"/>
    <axis xyz="0 0 1"/>
    <limit lower="-0.7854" upper="0.7854" effort="2.94" velocity="5.23"/>
  </joint>


  <link name="hip_right_2">
    <visual>
      <origin rpy="0 1.5708 0" xyz="0 0.05 0"/>
      <geometry>
        <box size="0.05 0.03 0.04"/>
      </geometry>
      <material name="green">
        <color rgba="0 1 0 0.5"/>
      </material>
    </visual>
  </link>

  <joint name="hip_right_1_to_hip_right_2" type="revolute">
    <parent link="hip_right_1"/>
    <child link="hip_right_2"/>
    <origin xyz="0.05 0 -0.01" rpy="-1.5708 0 0"/>
    <axis xyz="0 0 1"/>
    <limit lower="-0.7854" upper="0.7854" effort="2.94" velocity="5.23"/>
  </joint>


  <link name="thigh_right">
    <visual>
      <origin rpy="0 0 0" xyz="0.12 0 0"/>
      <geometry>
        <box size="0.15 0.04 0.05"/>
      </geometry>
      <material name="yellow">
        <color rgba="1 1 0 0.5"/>
      </material>
    </visual>
  </link>

  <joint name="hip_right_2_to_thigh_right" type="revolute">
    <parent link="hip_right_2"/>
    <child link="thigh_right"/>
    <origin xyz="0 0.05 0.01" rpy="1.5708 0 1.5708"/>
    <axis xyz="0 0 1"/>
    <limit lower="0" upper="1.5708" effort="2.94" velocity="5.23"/>
  </joint>


  <link name="leg_right">
    <visual>
      <origin rpy="0 0 0" xyz="0.15 0 0"/>
      <geometry>
        <box size="0.2 0.04 0.05"/>
      </geometry>
      <material name="red">
        <color rgba="1 0 0 0.5"/>
      </material>
    </visual>
  </link>

  <joint name="thigh_right_to_leg_right" type="revolute">
    <parent link="thigh_right"/>
    <child link="leg_right"/>
    <origin xyz="0.2 0 0" rpy="0 0 0"/>
    <axis xyz="0 0 1"/>
    <limit lower="-1.5708" upper="0" effort="2.94" velocity="5.23"/>
  </joint>



  <link name="ankle_right">
    <visual>
      <origin rpy="-1.5708 3.1416 0" xyz="0.07 0 0"/>
      <geometry>
        <box size="0.05 0.03 0.04"/>
      </geometry>
      <material name="magenta">
        <color rgba="1 0 1 0.5"/>
      </material>
    </visual>
  </link>

  <joint name="leg_right_to_ankle_right" type="revolute">
    <parent link="leg_right"/>
    <child link="ankle_right"/>
    <origin xyz="0.25 0 0" rpy="0 0 0"/>
    <axis xyz="0 0 1"/>
    <limit lower="-0.7854" upper="0.7854" effort="2.94" velocity="5.23"/>
  </joint>



  <link name="foot_right">
    <visual>
      <origin rpy="1.5708 0 0" xyz="0 0.05 0.02"/>
      <geometry>
        <box size="0.05 0.1 0.01"/>
      </geometry>
      <material name="blue">
        <color rgba="0 0 1 0.5"/>
      </material>
    </visual>
  </link>

  <joint name="ankle_right_to_foot_right" type="revolute">
    <parent link="ankle_right"/>
    <child link="foot_right"/>
    <origin xyz="0.08 0 0" rpy="-1.5708 -1.5708 0"/>
    <axis xyz="0 0 1"/>
    <limit lower="-0.7854" upper="0.7854" effort="2.94" velocity="5.23"/>
  </joint>



  <link name="hip_left_1">
    <visual>
      <origin rpy="-1.5708 -1.5708 0" xyz="-0.05 0 0"/>
      <geometry>
        <box size="0.05 0.03 0.04"/>
      </geometry>
      <material name="cian">
        <color rgba="0 1 1 0.5"/>
      </material>
    </visual>
  </link>

  <joint name="base_to_hip_left_1" type="revolute">
    <parent link="base_link"/>
    <child link="hip_left_1"/>
    <origin xyz="-0.065 0 -0.05"/>
    <axis xyz="0 0 1"/>
    <limit lower="-0.7854" upper="0.7854" effort="2.94" velocity="5.23"/>
  </joint>



  <link name="hip_left_2">
    <visual>
      <origin rpy="0 1.5708 0" xyz="0 0.05 0"/>
      <geometry>
        <box size="0.05 0.03 0.04"/>
      </geometry>
      <material name="green">
        <color rgba="0 1 0 0.5"/>
      </material>
    </visual>
  </link>

  <joint name="hip_left_1_to_hip_left_2" type="revolute">
    <parent link="hip_left_1"/>
    <child link="hip_left_2"/>
    <origin xyz="-0.05 0 -0.01" rpy="-1.5708 0 0"/>
    <axis xyz="0 0 1"/>
    <limit lower="-0.7854" upper="0.7854" effort="2.94" velocity="5.23"/>
  </joint>


  <link name="thigh_left">
    <visual>
      <origin rpy="0 0 0" xyz="0.12 0 0"/>
      <geometry>
        <box size="0.15 0.04 0.05"/>
      </geometry>
      <material name="yellow">
        <color rgba="1 1 0 0.5"/>
      </material>
    </visual>
  </link>

  <joint name="hip_left_2_to_thigh_left" type="revolute">
    <parent link="hip_left_2"/>
    <child link="thigh_left"/>
    <origin xyz="0 0.05 0.01" rpy="1.5708 0 1.5708"/>
    <axis xyz="0 0 1"/>
    <limit lower="0" upper="1.5708" effort="2.94" velocity="5.23"/>
  </joint>



  <link name="leg_left">
    <visual>
      <origin rpy="0 0 0" xyz="0.15 0 0"/>
      <geometry>
        <box size="0.2 0.04 0.05"/>
      </geometry>
      <material name="red">
        <color rgba="1 0 0 0.5"/>
      </material>
    </visual>
  </link>

  <joint name="thigh_left_to_leg_left" type="revolute">
    <parent link="thigh_left"/>
    <child link="leg_left"/>
    <origin xyz="0.2 0 0" rpy="0 0 0"/>
    <axis xyz="0 0 1"/>
    <limit lower="-1.5708" upper="0" effort="2.94" velocity="5.23"/>
  </joint>



  <link name="ankle_left">
    <visual>
      <origin rpy="-1.5708 3.1416 0" xyz="0.07 0 0"/>
      <geometry>
        <box size="0.05 0.03 0.04"/>
      </geometry>
      <material name="magenta">
        <color rgba="1 0 1 0.5"/>
      </material>
    </visual>
  </link>

  <joint name="leg_left_to_ankle_left" type="revolute">
    <parent link="leg_left"/>
    <child link="ankle_left"/>
    <origin xyz="0.25 0 0" rpy="0 0 0"/>
    <axis xyz="0 0 1"/>
    <limit lower="-0.7854" upper="0.7854" effort="2.94" velocity="5.23"/>
  </joint>



  <link name="foot_left">
    <visual>
      <origin rpy="1.5708 0 0" xyz="0 0.05 0.02"/>
      <geometry>
        <box size="0.05 0.1 0.01"/>
      </geometry>
      <material name="blue">
        <color rgba="0 0 1 0.5"/>
      </material>
    </visual>
  </link>

  <joint name="ankle_left_to_foot_left" type="revolute">
    <parent link="ankle_left"/>
    <child link="foot_left"/>
    <origin xyz="0.08 0 0" rpy="-1.5708 -1.5708 0"/>
    <axis xyz="0 0 1"/>
    <limit lower="-0.7854" upper="0.7854" effort="2.94" velocity="5.23"/>
  </joint>

</robot>
